/* XPM */
static char * tkLaTeXeditor_32x32_xpm[] = {
"32 32 10 1",
" 	c None",
".	c #0000FF",
"+	c #FF0000",
"@	c #000000",
"#	c #FFFF00",
"$	c #FFF200",
"%	c #FFDA00",
"&	c #FF5B00",
"*	c #FFAA00",
"=	c #FF5500",
"...............  +++++++  ++++++",
"...............@ +++++@@@  @+++@",
"..@@@@...@@@@..@  @+++@     ++@@",
".@@   ...@    .@    ++@     +@@ ",
" @    ...@     @    +++    ++@  ",
"      ...###########$%++  ++@   ",
"      ...@####@@@@@@#%++@ +@    ",
"      ...@ ###@     ##+++++@    ",
"      ...@ ###@      #@+++@     ",
"      ...@ ###@       @++++     ",
"      ...@ ###@       ++@++@    ",
"      ...@ ###@   #  ++@ +++    ",
"      ...@ ###@  ##@ +@   +++   ",
"      ...@ ########@++@    ++@  ",
"      ...@ ###@@@##&+@     +++  ",
"      ...@ ###@   *=@      ++++ ",
"    .......###@ ++==++   +++++++",
"     @@@@@@###@  @@@@@@   @@@@@@",
"           ###@       #         ",
"           ###@       #@        ",
"          ####@      ##@   @@@@ ",
"         ##############@    @@  ",
"          @@@@@@@@@@@@@@    @@  ",
"                            @@  ",
"                @@@@    @@@@@@  ",
"               @@  @@  @@@ @@@  ",
"              @@    @  @@   @@  ",
"              @@@@@@@ @@@   @@  ",
"              @@      @@@   @@  ",
"              @@       @@   @@  ",
"               @@   @  @@@ @@@  ",
"                @@@@    @@@@@@  "};
