\\* 
\\
\Big
\big
\Bigg
\bigg
\biggl
\Biggr
\biggr
\bigl
\Bigm
\binom{}{}{}{}{}{}
\cfrac[]{}{}
\dbinom{}{}{}{}{}{}
\ddddot{}
\dddot{}
\ddots{}
\dfrac{}{}
\dots
\dotsb
\dotsc
\dotsi
\dotsm
\fracwithdelims()[]
\genfrac{}{}{}{}{}{}
\idotsint
\leftroot
\measuredangle
\mod
\nolimits
\operatorname{}
\overset
\pmod
\pod
\rVert
\rvert
\xrightarrow
\sideset
\smash\spbreve
\spcheck
\spdddot
\spddot
\spdot
\special
\sphat
\sptilde
\stackrel
\tag{}
\tag*{}
\tbinom{}{}{}{}{}{}
\tfrac
\uproot
\varinjlim
\varliminf
\varlimsup
\varprojlim
Vmatrix
vmatrix

