\'
\( 
\) 
\,
\-
\/
\:
\;
\=
\>
\!
\@addtoreset{}{}
\@cite
\@dotsep
\@dottedtocline{}{}{}{}{}
\@evenfoot
\@evenhead
\@makecaption{}{}
\@makefigcaption
\@makefnmark
\@makefntext
\@mkboth
\@oddfoot
\@oddhead
\@pnumwidth
\@ptsize
\@rightskip
\@seccntformat
\@startsection{}{}{}{}{}{}
\@starttoc{}
\@thefnmark
\@tocrmarg
\`
\a'
\a=
\a'
\abovedisplayshortskip
\abovedisplayskip
abstract
\abstractname
\accent
\acro
\addcontentsline{}{}
\adddialect{}{}
\addlanguage{}
\addto
\addtocontents{}{}
\addtocounter{}{}	
\addtolength{}{}
\AE
\aleph
\alsoname
\amalg
\Appendix
\appendix
\appendixname
array
\AtBeginDocument
\AtEndDocument
\AtEndOfClass
\AtEndOfPackage
\baselineskip
\baselinestretch
\batchfile{}
\batchinput
\Bbb
\begin{}
\belowdisplayshortskip
\belowdisplayskip
\bf
\bfdefault
Bflushleft
Bflushright
\bfseries
\bibhang
\bibindent
\bibitem[]{}
\bibliography{}
\bibliographystyle{}
\bibliographyunit[]
\bibname
\bibpunct
\bigcircle
\bigskip
\bigskipamount
bmatrix
\bmod
\boldmath
book
bookman
\botfigrule
\bottomcaption
\bottomfraction
bottomnumber
\boxed{}
bundle
\bye
calc
\caption[]{}
\caption*{}
\captionwidth
cases
catalan
\catcode
cc
\ccname
CD
center
\centering
centertags 
changebar
\chapter{}
chapter
\chapter*{}
chapterbib
\chaptermark
\chaptername
chicago
Citation
\cite[]{}
citesort
\cleardoublepage
\clearemptydoublepage
\clearpage
\cline
\CodelineFont
collectmore
color
colordvi
columnbadness
\columnsep
\colunnseprule
\coluanwidth
comment
concrete
\contentsline{}{}{}
\contentsname
Cor
croatian
cropmarks
\csname
\CurrentOption
curves
czech
danish
dashjoin
\dblfigrule
\dblfloatpagefraction
\dblfloatsep
\dbltextfloatsep 
\dbltopfraction
dbltopnumber
dcolumn
debugshow
\DeclareErrorFont
\DeclareFixedFont{}{}{}{}{}{}
\DeclareFontEncoding{}{}{}
\DeclareFontFamily{}{}{}
\DeclareFontShape{}{}{}{}{}{}
\DeclareFontSubstitution{}{}{}{}
\DeclareMathAlphabet{}{}{}{}{}
\DeclareMathOperator{}
\DeclareMathOperator*{}
\DeclareMathSizes{}{}{}{}
\DeclareMathSymbol{}{}{}{} 
\DeclareMathVersion{}
\DeclareOption{}{}
\DeclareOption*{}
\DeclareSymbolFont{}{}{}{}{}
\DeclareSymbolFontAlphabet{}{}
Def
\defaulthyphenchar
deflist
delarray
\depth
description
\descriptionlabel
\displaybreak[]
\displaystyle
doc
document
\documentclass[]{}
\documentstyle[]{}
\dotfill
dottedjoin
\doublerulesep
doublespace
\dq
draft
draftcopy
drawjoin
\driver
dutch
dvips
dvitops
\ecaption 
eclbip
ecltree
eepic
eepicemu
\em
\emergencystretch
\emph{}
empty
emtex
\enclname
\encodingdefault
\end{}
\endcsname
endfloat
\endpostamble
\endpreamble
english
\enlargethispage{}
\enlargethispage*
\enspace
\ensuremath{}
entry
\entrylabel
enumerate
enumerate
enumeration
enumi
enumii
enumiii
enumiv
environment
epic
epsfig
eqnarray
eqnarray*
\eqref
equation
equation
equation*
errorshow
esperanto
eucal
eufrak
euler
euscript
\evensidemargin
Exa
\ExecuteOptions
executivepaper
exscale
\externaldocument
\extracolsep
\extrarowheight
\extratabsurround
\faketableofcontents
\familydefault
fancy
fancybox
fancyheadings
\fbox{}
\fboxrule
\fboxsep
figure
figure
\figurename
figwindow
filecontents
\fill
finalcolumnbadness
final
\Finale
finnish
fixed
flatter
flalign
flalign*
fleqn
float
floatfig
floatingfigure
\floatpagefraction
\floatsep
\flq
\flqq
\flushbottom
\flushcolunms
flushleft
flushright
\fminilength
fminipage
fnpara
\fontdimen
\fontencoding{}
\fontfamily{}
\fontseries{}
\fontshape{}
\fontsize{}{}
\footnote{}
footnote
\footnotemark
\footnoterule
\footnotesep
\footnotesize
\footnotetext{}
footnpag
\footskip
\framebox[][]{}
FrameVerb
francais
french
french
\from{}{}
\frq
\frqq
ftnright
\fullref
\fussy
galician
garamond
gather
gather*
gathered
\generateFile{}{}{}
german
german
germanb
\glossary
\glossaryentry
\glq
\glqq
graphics
\grq
\grqq
hackalloc
hangcaption
harvard
\hdotsfor[]{}
\headheight
headings
\headsep
\headtoname
\height
\help
helvet
here
hhline
\hline
\hoffset
\hrulefill
\hspace
\hspace*
\Huge
\huge
\IfFileExists{}{}{}
\iflanguage{}{}{}
ifthen
\ignorespaces
\include{}
\includeonly{}
indentfirst
index
\indexentry
\indexname
infoshow
\init
\input
inputenc
\InputIfFileExists{}{}{}
\intertext{}
\intextsep
intlimits
isolatin1
\it
italian
\itdefault
\item
\itemindent
itemize
\itemsep
\itshape
jmb
\jot
\keepsilent
\l@chapter
\l@example
\l@figure
\l@paragraph
\l@part
\l@section
\1@subparagraph
\l@subsection
\l@subsubsection
\l@table
\label{}
\labelenumi
\labelenumii
\labelenumiii
\labelemuniv
\labelitemi
\labelitemii
\labelitemiii
\labelitemiv
\labelsep
\labelwidth
\landscape
landscape
\LARGE
\Large
\large
\lasthline
latexsym,
layout
\left
\leftmargin
\leftmark
legalpaper
Lem
Lentry
\Lentrylabel{}
leqno
letter
letterpaper
\letterspace
letterspace
\linebreak
\linethickness
\linewidth
list
\listfigurename
\listfiles
\listofexamples
\listoffigures
\listoftables
\listparindent
\listtablename
ln
\LoadClass[]{}[]
loading
\longpage
longtable
\lowercase
lrbox
lscape
\LTcapwidth
\LTchunksize
\LTleft
\LTpost
\LTpre
\LTright
lucid
lucidbrb
lucidbry
lucmath 
\lVert
\lvert
\m@th
macro
macrocode
macrocode*
magyar
\makeatletter
\makeatother
\makebox[][]{}
\makeglossary
makeidx
\makelabel
\maketitle
\marginlabel{}
\marginpar[]{}
\marginparpush
\marginparsep 
\marginparwidth
\markboth{}{}
\markright{}
\mathalpha
\mathbf
\mathbin
\mathcal
\mathclose
\mathindent
\mathit
\mathnormal
\mathop
\mathopen
\mathord
\mathpunct
\mathrel
\mathrm
\mathsf
\mathsfsl
\mathsurround
\mathtt
\mathversion
\matrix
matrix
MaxMatrixCols
\mbox{}
\mddefault
\mdseries
\medskip
\medskipamount
\medspace
\Mentry
\Mentrylabel
\message
minipage 
minitoc
minitocdepth
minitocoff
mm
moreverb
mpfootnote
\Msg
\mspace
\mtcfont
\mtcindent
mtimes
mu
multibox
multicol
multicols
\multicolsep
\multicolumn
multind
multirow
multline
multline*
\multlinegap
myheadings
named
namelimits
\names
nar 
natbib
\naturalwidth
nature
\NeedsTeXFormat{}[]
\negmedspace
\negthickspace
\negthinspace
newapa
\newblock
newcent
\newcolunmtype{}[]{}
\newcommand{}
\newenvironment{}[]{}{}
\newfont
\newindex
\newlength
newlfont
\newpage
\newsavebox{}
\nfssfont
\nocite{}
\nocorr
\nocorrlist
\nofiglist
\nofiles
\nohyphens
\noindent
nointlimits
nonamelimits
\nonfrenchspacing
\nonumber
\nopagebreak
\normalem
\normalfont
\normalmarginpar
\normalsize
norsk
nosumlimits
\notablist
\notag
Notes
notes
\numberline
nynorsk
\oddsidemargin
oldgerm
oldlfont
\oldstylenums
\onecolumn
openbib
\openin
\OptionNotUsed
order
\Ovalbox{}
\ovalbox{}
overcite
oztex
\p@enumi
\p@enumii
\p@enumiii
\p@enumiv
page
\pagebreak
\pagename
\pagenumbering
\pageref
\pagestyle
palatino
pandora
\paperheight
\paperwidth
\paragraph{}
paragraph
\parbox[]{}{}
parentequation
\parindent
\parsep
\parskip
\part{}
part
\part*{}
\partname
\partopsep
\PassOptionsToClass{}{}
\PassOptionsToPackage{}{}
pausing
pc
\phantom
Piautolist
picinpar
picture
pifont
Pilist
plain
\plainfootrulewidth
\plainheadrulewidth
pmatrix
polish
portland
\portrait
portrait
portuges
\postamble
\postinulticols
\preamble
\prefacename
\premulticols
\PreserveBackslash
\ProcessOptions
\ProcessOptions*
program
program
programbox
proof
\proofmodetrue
\protect
\providecommand
\ProvidesClass
\ProvidesFile
\ProvidesPackage
\ps@
\ps@plain
psamsfonts
psboxit
pstimesm
pt
\put
\putbib
\putfile
\qquad
\quad
quotation
Quote
quote
\raggedcolumns
\raggedleft
\raggedright
\raisebox{}[][]{}
\ratio
\ref{}
\refname{}
\refstepcounter
\reftextafter
\reftextbefore
\reftextcurrent
\reftextfaceafter
\reftextfacebefore
\reftextfaraway
\reftextvario{}{}
Rem
\renewconnnand{}
\renewenvironment{}[]{}{}
report
reqno
\RequirePackage
resume
\reversemarginpar
\right
\rightmargin
\rightmark
\rightskip
\rm
\rmdefault
\rmfamily
\Roman
\roman
Roman
roman
romanian
rotate
rotate
rotating
\rotcaption
\rotdriver
\rule
russian
\samepage
\sAppendix
\savebox{}[][]{}
Sbox
\sbox{}
\sc
\scdefault
\scriptscriptstyle
\scriptsize
\scriptstyle
\scshape
\secdef
secnumdepth
\section{}
section
\section*{}
\sectionmark
\see  
\seename
\selectfont
\selectlanguage
seminar
\seriesdefault 
\setlength
\setmargins
\setmarginsrb
\SetMathAlphabet
\setpapersize
\SetSymbolFont
\settodepth
\settoheight{}{}
\settowidth{}{}
\sf
\sfdefault
\sffamily
\shabox
shadow
\shadowsize
\shapedefault
\shapepar
shapepar
\shortindexingoff
\shortindexingon
\shortpage
\shoveleft
\shoveright
\showcols
showidx
\showprogress
showtags
sideways
sidewaysfigure
sidewaystable
\skip
\sl
\sldefault
slides,
\sloppy
slovak
slovene
\slshape
\small
smallmatrix
\smallskip
\smallskipamount
\SortNoop
\sout
sp
\space
spacing
spanish
split
\squarepar
\ss
StandardModuleDepth
\stop
\stretch{}
\string
\strut
subarray
subequations
subfigure
\subitem
\subparagraph{}
subparagraph
\subsection{}
subsection
\substack
\subsubitem
\subsubsection{}
subsubsection
sumlimits
\suntaxonly
supertab
supertabular
supertabular*
\suppressfloats
\swabfamily
swedish
\symbol
syntonly
t1enc
tabbing
\tabbingsep
\tabcolsep
\table
table
\tablename
\tableofcontents
\tableplace
tabular
tabular*
TabularC
tabularx 
tabularx
\tabularxcolunm
tabwindow
tbtags
\text{}
\textbf{}
\textfloatsep{}
\textfraction{}
\textfrak{}
\textgoth{}
\textheight{}
\textit{}
\textmd{}
\textnormal{}
\textrm{}
\textsc{}
\textsf{}
\textsl{}
\textstyle{}
\textswab{}
\texttt{}
\textup{}
textures
\textwidth
thebibliography
\thechapter
\theendnotes
\heenumi
\theenumii
\theenumiii
\theenumiv
\theequation
\thefootnote
theglossary
theindex
\thempfootnote
theorem
\thepage
\TheSbox
\thesection
\thesubfigure
\thesubsection
\thickspace
\thinlines
\thinspace
\thispagestyle
threeparttable
threeparttable
times
\tiny
tocdepth
\today
\tolerance
\topcaption
\topfigrule
\topfraction
\topmargin
topnumber
\topsep
\topskip
\totalheight
totalnumber
tracefnt
\tracingfonts
tracingmulticols
\tracingtabularx
trees
\tt
\ttdefault
\ttfamily
turkish
turn
\twlrm
\twocolumn
twocolumn
twoside
\typeout
ulem
\ULforem
\uline
unbalance
\unboldmath
\underset
\unitlength
\unskip
\updefault
upref
\upshape
\usage
\usebox{}
\usecounter
\usefont
\usepackage[]{}[]
\uwave
\vadjust
\value
varioref
\vector
Ventry
\verb
\verb*
\vfill
\vline
vmargin
\voffset
\vpageref
\vref
\vrule
\vspace
\vspace*
warningshow
\WideMargins
\width
window
\wlog
wrapfig
wrapfig
wrapfigure
\xleftarrow
\xout
xr
\xspace
xspace