\relax 
\catcode`"\active
\select@language{russian}
\@writefile{toc}{\select@language{russian}}
\@writefile{lof}{\select@language{russian}}
\@writefile{lot}{\select@language{russian}}
\@writefile{toc}{\contentsline {section}{\numberline {1}\IeC {\CYRN }\IeC {\cyra }\IeC {\cyrz }\IeC {\cyrn }\IeC {\cyra }\IeC {\cyrch }\IeC {\cyre }\IeC {\cyrn }\IeC {\cyri }\IeC {\cyre }}{1}}
\@writefile{toc}{\contentsline {subsection}{\numberline {1.1}\IeC {\CYRO }\IeC {\cyrp }\IeC {\cyri }\IeC {\cyrs }\IeC {\cyra }\IeC {\cyrn }\IeC {\cyri }\IeC {\cyre } \IeC {\cyrf }\IeC {\cyru }\IeC {\cyrn }\IeC {\cyrk }\IeC {\cyrc }\IeC {\cyri }\IeC {\cyrishrt }}{1}}
\@writefile{toc}{\contentsline {subsection}{\numberline {1.2}\IeC {\CYRN }\IeC {\cyre }\IeC {\cyro }\IeC {\cyrb }\IeC {\cyrh }\IeC {\cyro }\IeC {\cyrd }\IeC {\cyri }\IeC {\cyrm }\IeC {\cyro }\IeC {\cyre } \IeC {\CYRP }\IeC {\CYRO }}{2}}
\@writefile{toc}{\contentsline {section}{\numberline {2}\IeC {\CYRN }\IeC {\cyra }\IeC {\cyrch }\IeC {\cyra }\IeC {\cyrl }\IeC {\cyro } \IeC {\cyrr }\IeC {\cyra }\IeC {\cyrb }\IeC {\cyro }\IeC {\cyrt }\IeC {\cyrery }}{2}}
\@writefile{toc}{\contentsline {section}{\numberline {3}\IeC {\CYRR }a\IeC {\cyrb }\IeC {\cyro }\IeC {\cyrt }\IeC {\cyra } \IeC {\cyrs } \IeC {\cyrd }\IeC {\cyro }\IeC {\cyrk }\IeC {\cyru }\IeC {\cyrm }\IeC {\cyre }\IeC {\cyrn }\IeC {\cyrt }\IeC {\cyro }\IeC {\cyrm }}{3}}
\@writefile{toc}{\contentsline {subsection}{\numberline {3.1}\IeC {\CYRR }\IeC {\cyre }\IeC {\cyrd }\IeC {\cyra }\IeC {\cyrk }\IeC {\cyrt }\IeC {\cyri }\IeC {\cyrr }\IeC {\cyro }\IeC {\cyrv }\IeC {\cyra }\IeC {\cyrn }\IeC {\cyri }\IeC {\cyre }}{3}}
\@writefile{toc}{\contentsline {subsubsection}{\numberline {3.1.1}\IeC {\CYRV }\IeC {\cyrs }\IeC {\cyrt }\IeC {\cyra }\IeC {\cyrv }\IeC {\cyrk }\IeC {\cyra } \IeC {\cyrt }\IeC {\cyre }\IeC {\cyrg }\IeC {\cyro }\IeC {\cyrv }}{3}}
\@writefile{toc}{\contentsline {subsubsection}{\numberline {3.1.2}\IeC {\CYRP }\IeC {\cyro }\IeC {\cyri }\IeC {\cyrs }\IeC {\cyrk } \IeC {\cyri } \IeC {\cyrz }\IeC {\cyra }\IeC {\cyrm }\IeC {\cyre }\IeC {\cyrn }\IeC {\cyra } \IeC {\cyrt }\IeC {\cyre }\IeC {\cyrk }\IeC {\cyrs }\IeC {\cyrt }\IeC {\cyra }}{4}}
\@writefile{toc}{\contentsline {subsection}{\numberline {3.2}\IeC {\CYRP }\IeC {\cyre }\IeC {\cyrr }\IeC {\cyre }\IeC {\cyrk }\IeC {\cyro }\IeC {\cyrd }\IeC {\cyri }\IeC {\cyrr }\IeC {\cyro }\IeC {\cyrv }\IeC {\cyra }\IeC {\cyrn }\IeC {\cyri }\IeC {\cyre }}{4}}
\@writefile{toc}{\contentsline {subsection}{\numberline {3.3}\IeC {\CYRP }\IeC {\cyrr }\IeC {\cyre }\IeC {\cyrd }\IeC {\cyrp }\IeC {\cyrr }\IeC {\cyro }\IeC {\cyrs }\IeC {\cyrm }\IeC {\cyro }\IeC {\cyrt }\IeC {\cyrr } \IeC {\cyrt }\IeC {\cyre }\IeC {\cyrk }\IeC {\cyrs }\IeC {\cyrt }\IeC {\cyra } \IeC {\cyri } \IeC {\cyrf }\IeC {\cyro }\IeC {\cyrr }\IeC {\cyrm }\IeC {\cyru }\IeC {\cyrl }}{4}}
\@writefile{toc}{\contentsline {subsection}{\numberline {3.4}\IeC {\CYRP }\IeC {\cyrr }\IeC {\cyro }\IeC {\cyrv }\IeC {\cyre }\IeC {\cyrr }\IeC {\cyrk }\IeC {\cyra } \IeC {\cyro }\IeC {\cyrr }\IeC {\cyrf }\IeC {\cyro }\IeC {\cyrg }\IeC {\cyrr }\IeC {\cyra }\IeC {\cyrf }\IeC {\cyri }\IeC {\cyri }}{5}}
\@writefile{toc}{\contentsline {subsection}{\numberline {3.5}\IeC {\CYRP }\IeC {\cyrr }\IeC {\cyre }\IeC {\cyro }\IeC {\cyrb }\IeC {\cyrr }\IeC {\cyra }\IeC {\cyrz }\IeC {\cyro }\IeC {\cyrv }\IeC {\cyra }\IeC {\cyrn }\IeC {\cyri }\IeC {\cyre } \IeC {\cyrv } \IeC {\cyrr }\IeC {\cyra }\IeC {\cyrz }\IeC {\cyrl }\IeC {\cyri }\IeC {\cyrch }\IeC {\cyrn }\IeC {\cyrery }\IeC {\cyre } \IeC {\cyrf }\IeC {\cyro }\IeC {\cyrr }\IeC {\cyrm }\IeC {\cyra }\IeC {\cyrt }\IeC {\cyrery }}{5}}
\@writefile{toc}{\contentsline {subsection}{\numberline {3.6}\IeC {\CYRP }\IeC {\cyrr }\IeC {\cyre }\IeC {\cyrd }\IeC {\cyrv }\IeC {\cyra }\IeC {\cyrr }\IeC {\cyri }\IeC {\cyrt }\IeC {\cyre }\IeC {\cyrl }\IeC {\cyrsftsn }\IeC {\cyrn }\IeC {\cyrery }\IeC {\cyrishrt } \IeC {\cyrp }\IeC {\cyrr }\IeC {\cyro }\IeC {\cyrs }\IeC {\cyrm }\IeC {\cyro }\IeC {\cyrt }\IeC {\cyrr } \IeC {\cyrd }\IeC {\cyro }\IeC {\cyrk }\IeC {\cyru }\IeC {\cyrm }\IeC {\cyre }\IeC {\cyrn }\IeC {\cyrt }\IeC {\cyra }}{6}}
\@writefile{toc}{\contentsline {section}{\numberline {4}\IeC {\CYRN }\IeC {\cyra }\IeC {\cyrs }\IeC {\cyrt }\IeC {\cyrr }\IeC {\cyro }\IeC {\cyrishrt }\IeC {\cyrk }\IeC {\cyra }}{6}}
\@writefile{toc}{\contentsline {subsection}{\numberline {4.1}\IeC {\CYRK }\IeC {\cyro }\IeC {\cyrn }\IeC {\cyrf }\IeC {\cyri }\IeC {\cyrg }\IeC {\cyru }\IeC {\cyrr }\IeC {\cyra }\IeC {\cyrc }\IeC {\cyri }\IeC {\cyro }\IeC {\cyrn }\IeC {\cyrn }\IeC {\cyrery }\IeC {\cyrishrt } \IeC {\cyrf }\IeC {\cyra }\IeC {\cyrishrt }\IeC {\cyrl }}{6}}
\@writefile{toc}{\contentsline {subsection}{\numberline {4.2}\IeC {\CYRP }\IeC {\cyra }\IeC {\cyrn }\IeC {\cyre }\IeC {\cyrl }\IeC {\cyre }\IeC {\cyrishrt } \IeC {\cyri }\IeC {\cyrn }\IeC {\cyrs }\IeC {\cyrt }\IeC {\cyrr }\IeC {\cyru }\IeC {\cyrm }\IeC {\cyre }\IeC {\cyrn }\IeC {\cyrt }\IeC {\cyro }\IeC {\cyrv }}{9}}
\@writefile{toc}{\contentsline {subsubsection}{\numberline {4.2.1}\IeC {\CYRO }\IeC {\cyrp }\IeC {\cyri }\IeC {\cyrs }\IeC {\cyra }\IeC {\cyrn }\IeC {\cyri }\IeC {\cyre } \IeC {\cyrf }\IeC {\cyru }\IeC {\cyrn }\IeC {\cyrk }\IeC {\cyrc }\IeC {\cyri }\IeC {\cyrishrt }}{9}}
\@writefile{toc}{\contentsline {subsubsection}{\numberline {4.2.2}\IeC {\CYRN }\IeC {\cyra }\IeC {\cyri }\IeC {\cyrm }\IeC {\cyre }\IeC {\cyrn }\IeC {\cyro }\IeC {\cyrv }\IeC {\cyra }\IeC {\cyrn }\IeC {\cyri }\IeC {\cyre } \IeC {\cyrf }\IeC {\cyra }\IeC {\cyrishrt }\IeC {\cyrl }\IeC {\cyra }}{10}}
\@writefile{toc}{\contentsline {subsubsection}{\numberline {4.2.3}\IeC {\CYRF }\IeC {\cyro }\IeC {\cyrr }\IeC {\cyrm }\IeC {\cyra }\IeC {\cyrt } \IeC {\cyrf }\IeC {\cyra }\IeC {\cyrishrt }\IeC {\cyrl }\IeC {\cyra }}{10}}
\@writefile{toc}{\contentsline {subsubsection}{\numberline {4.2.4}\IeC {\CYRP }\IeC {\cyrr }\IeC {\cyri }\IeC {\cyrm }\IeC {\cyre }\IeC {\cyrr }}{10}}
\@writefile{toc}{\contentsline {section}{\numberline {5}"\IeC {\CYRG }\IeC {\cyro }\IeC {\cyrr }\IeC {\cyrya }\IeC {\cyrch }\IeC {\cyri }\IeC {\cyre }" \IeC {\cyrk }\IeC {\cyrl }\IeC {\cyra }\IeC {\cyrv }\IeC {\cyri }\IeC {\cyrsh }\IeC {\cyri }}{11}}
